ucontroladores/laboratorio/repo-avance/lab4/apoyoGuardado/wokwi-logic.vcd
$version Generated by Wokwi.com $end
$date Fri, 14 Mar 2025 00:20:32 GMT $end
$timescale 1ns $end
$scope module logic $end
$var wire 1 ! D0 $end
$upscope $end
$enddefinitions $end
#0
1!
#3298494935
0!
#3298528400
1!
#3298559672
0!
#3298570608
1!
#3298588509
0!
#3298638214
1!
#3298656376
0!
#3298717963
1!
#3298754716
0!
#3298778248
1!
#3298824258
0!
#3298828317
1!
#3298838270
0!
#3298893433
1!
#3298928576
0!
#3298987795
1!
#3299016343
0!
#3299017055
1!
#3299050020
0!
#3299075591
1!
#3299080064
0!
#3299121687
1!
#3299181404
0!
#3299203811
1!
#3299236564
0!
#3299255944
1!
#3299285710
0!
#3299344116
1!
#3299357441
0!
#3299390518
1!
#3299412589
0!
#3299435754
1!
#3299468731
0!
#3299504734
1!
#3299553668
0!
#3299557421
1!
#3299571789
0!
#3299596157
1!
#3299641373
0!
#3299688913
1!
#3299737528
0!
#3299756902
1!
#3299799504
0!
#3299843461
1!
#3299876698
0!
#3299890749
1!
#3299923261
0!
#3299944625
1!
#3299980482
0!
#3300022650
1!
#3300039219
0!
#3300100821
1!
#3300138662
0!
#3300177350
1!
#3300223972
0!
#3300262986
1!
#3300295457
0!
#3300309452
1!
#3300366090
0!
#3300368598
1!
#3300384822
0!
#3300413003
1!
#3300436583
0!
#3300476611
1!
#3300478281
0!
#3300493279
1!
#3300518167
0!
#3300520826
1!
#3300542188
0!
#3300597461
1!
#3300620998
0!
#3415145876
1!
#3415327942
0!
#3415478290
1!
#3415560609
0!
#3415626924
1!
#3415819118
0!
#3415992944
1!
#3416121295
0!
#3416291417
1!
#3416484977
0!
#3416485073
1!
#3416690660
0!
#3416731632
1!
#3416861135
0!
#3416886180
1!
#3416937714
0!
#3416984134
1!
#3417092759
0!
#3417122404
1!
#3417142063
0!
#3417276271
1!
#3515049796
0!
#3515149782
1!
#3515243051
0!
#3515293240
1!
#3515398586
0!
#3515468609
1!
#3515577516
0!
#3515650575
1!
#3515681514
0!
#3515696501
1!
#3515790722
0!
#3515797218
1!
#3515882620
0!
#3515962020
1!
#3515992921
0!
#3516047160
1!
#3516058668
0!
#3516130424
1!
#3516187600
0!
#3516260921
1!
#3516279596
0!
#3516323642
1!
#3516328561
0!
#3516372485
1!
#3516454145
0!
#3516500813
1!
#3516585535
0!
#3516680509
1!
#3516772554
0!
#3516778848
1!
#3516865206
0!
#3516940766
1!
#3516955114
0!
#3516976967
1!
#3517053394
0!
#3517075583
1!
#3517129885
0!
#3731602063
1!
#3731622298
0!
#3731641880
1!
#3731642878
0!
#3731648215
1!
#3731654324
0!
#3731673981
1!
#3731694716
0!
#3731709916
1!
#3731736488
0!
#3731740922
1!
#3731759287
0!
#3731775428
1!
#3731791847
0!
#3731792299
1!
#3731812468
0!
#3731815831
1!
#3731821990
0!
#3731830832
1!
#3731842313
0!
#3731859910
1!
#3731861965
0!
#3731873522
1!
#3731876973
0!
#3731897161
1!
#3731905236
0!
#3731930830
1!
#3731939242
0!
#3731964919
1!
#3731968412
0!
#3731976244
1!
#3731990384
0!
#3732018255
1!
#3732021036
0!
#3732036219
1!
#3732049490
0!
#3732073618
1!
#3732097981
0!
#3732123986
1!
#3732146765
0!
#3732150148
1!
#3732153423
0!
#3732155063
1!
#3732169365
0!
#3732189075
1!
#3732196030
0!
#3732215880
1!
#3732234880
0!
#3732259034
1!
#3732286572
0!
#3732288101
1!
#3732292484
0!
#3732315752
1!
#3732328897
0!
#3732347991
1!
#3732369545
0!
#3732391714
1!
#3732417848
0!
#3732419612
1!
#3732433320
0!
#3732455280
1!
#3732470436
0!
#3732475667
1!
#3732475877
0!
#3732494824
1!
#3732515757
0!
#3732530248
1!
#3732556186
0!
#3732582235
1!
#3732600421
0!
#3732610234
1!
#3732615079
0!
#3732641913
1!
#3732653639
0!
#3732672122
1!
#3732676106
0!
#3732693071
1!
#3732716042
0!
#3732732755
1!
#3732749525
0!
#3732763368
1!
#3732774402
0!
#3732786145
1!
#3732791212
0!
#3732793409
1!
#3732807954
0!
#3732828976
1!
#3732849376
0!
#3732871853
1!
#3732878801
0!
#3732889417
1!
#3732893423
0!
#3732899446
1!
#3732908554
0!
#3732915779
1!
#3732917646
0!
#3732935239
1!
#3732946077
0!
#3732946771
1!
#3732956822
0!
#3732974703
1!
#3732984971
0!
#3732992810
1!
#3733007228
0!
#3733025696
1!
#3733042468
0!
#3733044682
1!
#3733068902
0!
#3733091019
1!
#3733097867
0!
#3733122430
1!
#3733144039
0!
#3733170091
1!
#3733192992
0!
#3733221191
1!
#3733232270
0!
#3733246577
1!
#3733254633
0!
#3733268288
1!
#3733284754
0!
#3733301069
1!
#3733326295
0!
#3733341783
1!
#3733355826
0!
#3733356104
1!
#3733375698
0!
#3733382284
1!
#3733395688
0!
#3733423309
1!
#3733430021
0!
#3733435287
1!
#3733443639
0!
#3733456047
1!
#3733461225
0!
#3733470855
1!
#3733491218
0!
#3733509139
1!
#3733511502
0!
#3733532721
1!
#3733551619
0!
#3733553795
1!
#3733575189
0!
#3733575758
1!
#3733596515
0!
#3733611049
1!
#3733629186
0!
#3733633601
1!
#3733633776
0!
#3733637332
1!
#3733660457
0!
#3733687276
1!
#3733691822
0!
#3733709397
1!
#3733729959
0!
#3733741163
1!
#3864905959
0!
#3864936060
1!
#3864974170
0!
#3864993946
1!
#3865014238
0!
#3865041316
1!
#3865043296
0!
#3865048974
1!
#3865074509
0!
#3865093607
1!
#3865119682
0!
#3865158088
1!
#3865160768
0!
#3865202186
1!
#3865221785
0!
#3865246495
1!
#3865279062
0!
#3865303058
1!
#3865315598
0!
#3865329361
1!
#3865343523
0!
#3865365948
1!
#3865367850
0!
#3865406524
1!
#3865436124
0!
#3865445828
1!
#3865481415
0!
#3865492454
1!
#3865516323
0!
#3865522265
1!
#3865540550
0!
#3865576020
1!
#3865582602
0!
#3865624796
1!
#3865645600
0!
#3865657637
1!
#3865699184
0!
#3865714555
1!
#3865742478
0!
#3865769988
1!
#3865805379
0!
#3865838950
1!
#3865865254
0!
#3865894975
1!
#3865899188
0!
#3865901262
1!
#3865941625
0!
#3865964711
1!
#3866003760
0!
#3866033010
1!
#3866060579
0!
#3866084493
1!
#3866116055
0!
#3866135001
1!
#3866135438
0!
#3866175500
1!
#3866208335
0!
#3866224403
1!
#3866246388
0!
#3866260555
1!
#3866274485
0!
#3866278480
1!
#3866289461
0!
#3866333609
1!
#3866354603
0!
#3866373611
1!
#3866410903
0!
#3866412615
1!
#3866432024
0!
#3866449323
1!
#3866450594
0!
#3866479507
1!
#3866481391
0!
#3866524788
1!
#3866558651
0!
#3866593874
1!
#3866603237
0!
#3866627136
1!
#3866630469
0!
#3866667512
1!
#3866672024
0!
#3866688070
1!
#3866721689
0!
#3866765291
1!
#3866806309
0!
#3866826442
1!
#3866862171
0!
#3866894444
1!
#3866918296
0!
#3866946010
1!
#3866960983
0!
#3866999458
1!
#3867004079
0!
#3867021615
1!
#3867045857
0!
#3867082775
1!
#3867091721
0!
#3867123742
1!
#3867124339
0!
#4331294053
1!
#4331300392
0!
#4331323634
1!
#4331328702
0!
#4331329124
1!
#4331331534
0!
#4331336993
1!
#4331347326
0!
#4331358202
1!
#4331383867
0!
#4331405314
1!
#4331422457
0!
#4331439688
1!
#4331467277
0!
#4331484608
1!
#4331509533
0!
#4331532344
1!
#4331560069
0!
#4331580280
1!
#4331587205
0!
#4331608818
1!
#4331620273
0!
#4331648814
1!
#4331674828
0!
#4331694949
1!
#4331701024
0!
#4331718708
1!
#4331745091
0!
#4331774074
1!
#4331777893
0!
#4331786982
1!
#4331816538
0!
#4331839715
1!
#4331849199
0!
#4331861325
1!
#4331880382
0!
#4331883435
1!
#4331908771
0!
#4331909578
1!
#4331931642
0!
#4331946774
1!
#4331961923
0!
#4331968020
1!
#4331975834
0!
#4331991112
1!
#4332020292
0!
#4332033098
1!
#4332042832
0!
#4332044962
1!
#4332060036
0!
#4332081360
1!
#4332095571
0!
#4332099329
1!
#4332099400
0!
#4332103796
1!
#4332107678
0!
#4332107744
1!
#4332131029
0!
#4332145918
1!
#4332165115
0!
#4332183543
1!
#4332192533
0!
#4332197452
1!
#4332220420
0!
#4332244029
1!
#4332273067
0!
#4332275458
1!
#4332286670
0!
#4332300068
1!
#4332314210
0!
#4332333868
1!
#4332348409
0!
#4332349877
1!
#4332359838
0!
#4332360077
1!
#4332382117
0!
#4332411531
1!
#4332418915
0!
#4332430873
1!
#4332437467
0!
#4332445937
1!
#4332467373
0!
#4332492865
1!
#4332516938
0!
#4332538976
1!
#4332540833
0!
#4332559479
1!
#4332569797
0!
#4332583047
1!
#4332591190
0!
#4332615769
1!
#4332636228
0!
#4332660812
1!
#4332688569
0!
#4332692463
1!
#4332703898
0!
#4332714280
1!
#4332743741
0!
#4332772844
1!
#4332801615
0!
#4332809661
1!
#4332834326
0!
#4332845255
1!
#4332870405
0!
#4332885062
1!
#4332888601
0!
#4332891931
1!
#4332893621
0!
#4332904853
1!
#4332905530
0!
#4332927260
1!
#4332937307
0!
#4332946042
1!
#4332961012
0!
#4332989135
1!
#4333008252
0!
#4333026531
1!
#4333040583
0!
#4333053537
1!
#4333054845
0!
#4333059043
1!
#4333081158
0!
#4333088940
1!
#4333102692
0!
#4333118640
1!
#4333130419
0!
#4333137509
1!
#4333138501
0!
#4333160463
1!
#4333167123
0!
#4333196676
1!
#4333225313
0!
#4333228839
1!
#4333229820
0!
#4333241663
1!
#4333263406
0!
#4333292814
1!
#4333307898
0!
#4333317425
1!
#4333329999
0!
#4333358485
1!
#4333360425
0!
#4333376674
1!
#4333377995
0!
#4333386784
1!
#4333403847
0!
#4333423186
1!
#4431183556
0!
#4431207594
1!
#4431220184
0!
#4431233717
1!
#4431261332
0!
#4431287961
1!
#4431288123
0!
#4431304931
1!
#4431310197
0!
#4431316237
1!
#4431329541
0!
#4431340478
1!
#4431359529
0!
#4431371788
1!
#4431390630
0!
#4431396428
1!
#4431409489
0!
#4431436770
1!
#4431457416
0!
#4431464759
1!
#4431481749
0!
#4431490536
1!
#4431493842
0!
#4431496062
1!
#4431519391
0!
#4431532616
1!
#4431553227
0!
#4431569674
1!
#4431593313
0!
#4431608610
1!
#4431619330
0!
#4431634507
1!
#4431657394
0!
#4431681101
1!
#4431691301
0!
#4431701725
1!
#4431726087
0!
#4431753007
1!
#4431754738
0!
#4431781222
1!
#4431806976
0!
#4431829373
1!
#4431838454
0!
#4431850397
1!
#4431863248
0!
#4431885323
1!
#4431906898
0!
#4431933177
1!
#4431937648
0!
#4431948984
1!
#4431952019
0!
#4431979539
1!
#4431993191
0!
#4432002455
1!
#4432021826
0!
#4432041076
1!
#4432065746
0!
#4432076751
1!
#4432094140
0!
#4432111868
1!
#4432128084
0!
#4432133323
1!
#4432159030
0!
#4432163984
1!
#4432169983
0!
#4432184600
1!
#4432192200
0!
#4432192286
1!
#4432212540
0!
#4432219950
1!
#4432241403
0!
#4432254531
1!
#4432273074
0!
#4432299133
1!
#4432322441
0!
#4432336314
1!
#4432340324
0!
#4432354112
1!
#4432362433
0!
#4432381657
1!
#4432406695
0!
#4432429617
1!
#4432432288
0!
#4432444956
1!
#4432453441
0!
#4432475028
1!
#4432494439
0!
#4432515273
1!
#4432541561
0!
#4432552670
1!
#4432570749
0!
#4432573631
1!
#4432590278
0!
#4432603684
1!
#4432607002
0!
#4432628106
1!
#4432638537
0!
#4432665466
1!
#4432666493
0!
#4432680569
1!
#4432688703
0!
#4432696859
1!
#4432701634
0!
#4432724201
1!
#4432735073
0!
#4432739910
1!
#4432763881
0!
#4432765574
1!
#4432793675
0!
#4432813968
1!
#4432833656
0!
#4432847840
1!
#4432865884
0!
#4432868301
1!
#4432876883
0!
#4432879095
1!
#4432891680
0!
#4432911057
1!
#4432934620
0!
#4432942212
1!
#4432962959
0!
#4432984696
1!
#4432996474
0!
#4432996632
1!
#4433007516
0!
#4433009176
1!
#4433035277
0!
#4433053914
1!
#4433072364
0!
#4433080184
1!
#4433081092
0!
#4433099251
1!
#4433127486
0!
#4433140824
1!
#4433157940
0!
#4433186694
1!
#4433203735
0!
#4433204866
1!
#4433223240
0!
#4433231615
1!
#4433239829
0!
#4433252984
1!
#4433255668
0!
#4433280172
1!
#4433287244
0!
#4433301307
1!
#4433317888
0!
#4433335596
1!
#4433362868
0!
#4433385827
1!
#4433407569
0!
#4433423582
1!
#4433447863
0!
#5031003144
1!
#5031013778
0!
#5031017348
1!
#5031021305
0!
#5031032875
1!
#5031051305
0!
#5031056072
1!
#5031079099
0!
#5031083065
1!
#5031089566
0!
#5031107267
1!
#5031118219
0!
#5031139408
1!
#5031153343
0!
#5031164162
1!
#5031164746
0!
#5031181143
1!
#5031189162
0!
#5031212550
1!
#5031229457
0!
#5031232304
1!
#5031250897
0!
#5031264730
1!
#5031267193
0!
#5031284642
1!
#5031296380
0!
#5031307185
1!
#5031327460
0!
#5031344886
1!
#5031347089
0!
#5031347978
1!
#5031356920
0!
#5031357454
1!
#5031375802
0!
#5031379088
1!
#5031384396
0!
#5031396018
1!
#5031418908
0!
#5031437574
1!
#5031459318
0!
#5031481658
1!
#5031488630
0!
#5031498000
1!
#5031513411
0!
#5031516915
1!
#5031527555
0!
#5031531359
1!
#5031532443
0!
#5031550327
1!
#5031551589
0!
#5031559782
1!
#5031564501
0!
#5031566158
1!
#5031574978
0!
#5031585608
1!
#5031601379
0!
#5031618080
1!
#5031618741
0!
#5031627626
1!
#5031647129
0!
#5031651795
1!
#5031670046
0!
#5031682035
1!
#5031697958
0!
#5031712123
1!
#5031731994
0!
#5031738795
1!
#5031741393
0!
#5031742514
1!
#5031744820
0!
#5031750069
1!
#5031759069
0!
#5031768400
1!
#5031790022
0!
#5031802922
1!
#5031819079
0!
#5031840196
1!
#5031860087
0!
#5031880966
1!
#5031889433
0!
#5031909768
1!
#5031914524
0!
#5031920314
1!
#5031937046
0!
#5031937945
1!
#5031960596
0!
#5031967130
1!
#5031986935
0!
#5032006614
1!
#5032008593
0!
#5032030915
1!
#5032044949
0!
#5032055988
1!
#5032074359
0!
#5032082845
1!
#5032100517
0!
#5032108336
1!
#5032109719
0!
#5032127874
1!
#5032130116
0!
#5032144546
1!
#5032167072
0!
#5032187799
1!
#5032200807
0!
#5032219905
1!
#5032233343
0!
#5032235433
1!
#5032247543
0!
#5032253813
1!
#5032267839
0!
#5032270873
1!
#5032272282
0!
#5032290577
1!
#5032309739
0!
#5032333105
1!
#5032347651
0!
#5032349540
1!
#5032352623
0!
#5032372538
1!
#5032380766
0!
#5032395323
1!
#5032416779
0!
#5032432295
1!
#5032445981
0!
#5032449113
1!
#5032456116
0!
#5032457168
1!
#5032474873
0!
#5032487613
1!
#5032489153
0!
#5032494893
1!
#5032498963
0!
#5032502945
1!
#5032521820
0!
#5032526391
1!
#5032535222
0!
#5032553299
1!
#5032556703
0!
#5032566716
1!
#5032573430
0!
#5032589879
1!
#5032592384
0!
#5032615479
1!
#5032622948
0!
#5032642999
1!
#5032646456
0!
#5032651685
1!
#5032668116
0!
#5032676655
1!
#5032678976
0!
#5032702240
1!
#5032720494
0!
#5032726834
1!
#5032748104
0!
#5032769767
1!
#5032776153
0!
#5032779548
1!
#5032782991
0!
#5032790445
1!
#5032801044
0!
#5032818753
1!
#5032834079
0!
#5032839141
1!
#5032846753
0!
#5032864420
1!
#5032867509
0!
#5032871707
1!
#5032887315
0!
#5032902913
1!
#5032920205
0!
#5032931454
1!
#5032946777
0!
#5032964127
1!
#5032972204
0!
#5032990157
1!
#5032992544
0!
#5032996524
1!
#5033011521
0!
#5033034036
1!
#5033050006
0!
#5033054859
1!
#5033057004
0!
#5033065340
1!
#5033068397
0!
#5033084087
1!
#5033099329
0!
#5033119827
1!
#5114212418
0!
#5114221011
1!
#5114255578
0!
#5114296226
1!
#5114332404
0!
#5114347052
1!
#5114370815
0!
#5114379916
1!
#5114381598
0!
#5114382618
1!
#5114418117
0!
#5114448972
1!
#5114465679
0!
#5114498224
1!
#5114534504
0!
#5114550508
1!
#5114557740
0!
#5114577411
1!
#5114592053
0!
#5114603457
1!
#5114623161
0!
#5114658388
1!
#5114695186
0!
#5114720425
1!
#5114727593
0!
#5114739943
1!
#5114757036
0!
#5114780026
1!
#5114810445
0!
#5114847532
1!
#5114874884
0!
#5114890879
1!
#5114901575
0!
#5114938086
1!
#5114974978
0!
#5115005493
1!
#5115014445
0!
#5115028704
1!
#5115039040
0!
#5115073405
1!
#5115085340
0!
#5115091015
1!
#5115102586
0!
#5115112853
1!
#5115151924
0!
#5115171699
1!
#5115203730
0!
#5115232584
1!
#5115253446
0!
#5115271947
1!
#5115288138
0!
#5115330305
1!
#5115342174
0!
#5115358537
1!
#5115364126
0!
#5115366825
1!
#5115393697
0!
#5115402959
1!
#5115429615
0!
#5115435681
1!
#5115451975
0!
#5115463469
1!
#5115492241
0!
#5115499095
1!
#5115526071
0!
#5115546873
1!
#5115587407
0!
#5115618196
1!
#5115620656
0!
#5115632467
1!
#5115640835
0!
#5115643031
1!
#5115675399
0!
#5115699780
1!
#5115717099
0!
#5115722249
1!
#5115762562
0!
#5115793375
1!
#5115814864
0!
#5115845457
1!
#5115858470
0!
#5115865738
1!
#5115880987
0!
#5115901460
1!
#5115923616
0!
#5115928605
1!
#5115947150
0!
#5115955875
1!
#5115969927
0!
#5115979429
1!
#5116002623
0!
#5116006085
1!
#5116041007
0!
#5116084484
1!
#5116092192
0!
#5116134604
1!
#5116175753
0!
#5247726740
1!
#5247985111
0!
#5248172032
1!
#5248188841
0!
#5248324699
1!
#5248436871
0!
#5248668464
1!
#5248847368
0!
#5248977092
1!
#5249229023
0!
#5249392739
1!
#5249617533
0!
#5249730717
1!
#5249937120
0!
#5249938325
1!
#5250073132
0!
#5250251361
1!
#5314282338
0!
#5314319074
1!
#5314337236
0!
#5314409276
1!
#5314511355
0!
#5314547615
1!
#5314640629
0!
#5314683628
1!
#5314715553
0!
#5314726479
1!
#5314786521
0!
#5314866179
1!
#5314886790
0!
#5314910422
1!
#5314996971
0!
#5315032335
1!
#5315094546
0!
#5315121707
1!
#5315154365
0!
#5315241988
1!
#5315268967
0!
#5315296059
1!
#5315350600
0!
#5315368867
1!
#5315376341
0!
#5315431062
1!
#5315515763
0!
#5315532000
1!
#5315599065
0!
#5315661203
1!
#5315675762
0!
#5315722633
1!
#5315798258
0!
#5315860183
1!
#5315937844
0!
#5316004504
1!
#5316048697
0!
#5316052977
1!
#5316144166
0!
#5316169399
1!
#5316241258
0!
#5316265171
1!
#5316292991
0!
#5447385298
1!
#5447413725
0!
#5447425279
1!
#5447443754
0!
#5447451299
1!
#5447469176
0!
#5447479314
1!
#5447511650
0!
#5447519035
1!
#5447541870
0!
#5447543119
1!
#5447554740
0!
#5447572306
1!
#5447585756
0!
#5447611689
1!
#5447637444
0!
#5447668792
1!
#5447669352
0!
#5447695591
1!
#5447712793
0!
#5447725348
1!
#5447734758
0!
#5447752097
1!
#5447777039
0!
#5447798776
1!
#5447799199
0!
#5447827116
1!
#5447859590
0!
#5447860342
1!
#5447891366
0!
#5447904730
1!
#5447934420
0!
#5447954382
1!
#5447964860
0!
#5447981869
1!
#5447983424
0!
#5448009950
1!
#5448024765
0!
#5448043100
1!
#5448043267
0!
#5448047357
1!
#5448057388
0!
#5448080800
1!
#5448081280
0!
#5448088885
1!
#5448111865
0!
#5448135360
1!
#5448163645
0!
#5448184729
1!
#5448205553
0!
#5448206463
1!
#5448225527
0!
#5448229355
1!
#5448250966
0!
#5448272334
1!
#5448302366
0!
#5448318416
1!
#5448340607
0!
#5448362533
1!
#5448378658
0!
#5448393491
1!
#5448396505
0!
#5448397158
1!
#5448403553
0!
#5448412249
1!
#5448422547
0!
#5448442979
1!
#5448467674
0!
#5448491442
1!
#5448507608
0!
#5448532558
1!
#5448548871
0!
#5448551630
1!
#5448582116
0!
#5448585750
1!
#5448586345
0!
#5448606325
1!
#5448631992
0!
#5448633161
1!
#5448661928
0!
#5448672644
1!
#5448702648
0!
#5448731083
1!
#5448737177
0!
#5448742033
1!
#5448759916
0!
#5448762321
1!
#5448793847
0!
#5448801818
1!
#5448827991
0!
#5448847806
1!
#5448848990
0!
#5448859622
1!
#5448860872
0!
#5448879464
1!
#5448895993
0!
#5448925926
1!
#5448944811
0!
#5448974840
1!
#5448983999
0!
#5448998401
1!
#5449003572
0!
#5449028948
1!
#5449057395
0!
#5449069388
1!
#5449083332
0!
#5449086224
1!
#5449093326
0!
#5449121798
1!
#5449142117
0!
#5449143307
1!
#5449147599
0!
#5449163100
1!
#5449183155
0!
#5449188266
1!
#5449198685
0!
#5449225605
1!
#5449250646
0!
#5449275372
1!
#5449281654
0!
#5449312824
1!
#5449343787
0!
#5449352715
1!
#5449365667
0!
#5449386265
1!
#5449402962
0!
#5449430534
1!
#5449434447
0!
#5449463048
1!
#5449465649
0!
#5449471396
1!
#5449474855
0!
#5449481110
1!
#5449492491
0!
#5449515642
1!
#5514829002
0!
#5515135769
1!
#5515676198
0!
#5516078707
1!
#5516851078
0!
#5647449771
1!
#5647489977
0!
#5647628591
1!
#5647764002
0!
#5647896509
1!
#5647978316
0!
#5648113552
1!
#5648129953
0!
#5648151925
1!
#5648276035
0!
#5648282736
1!
#5648353377
0!
#5648475744
1!
#5648575279
0!
#5648696972
1!
#5648790814
0!
#5648899017
1!
#5649006547
0!
#5649018223
1!
#5649057381
0!
#5649157660
1!
#5649212640
0!
#5649320992
1!
#5649416577
0!
#5649503313
1!
#5649524299
0!
#5649573187
1!
#5649657477
0!
#5649690487
1!
#5649796992
0!
#5649870551
1!
#5714012057
0!
#5714048923
1!
#5714049414
0!
#5714073980
1!
#5714093751
0!
#5714122801
1!
#5714130931
0!
#5714164795
1!
#5714170522
0!
#5714175746
1!
#5714208387
0!
#5714232456
1!
#5714240563
0!
#5714259162
1!
#5714271134
0!
#5714302418
1!
#5714316760
0!
#5714348278
1!
#5714374252
0!
#5714405741
1!
#5714436770
0!
#5714444250
1!
#5714474195
0!
#5714490676
1!
#5714507475
0!
#5714524930
1!
#5714548820
0!
#5714582718
1!
#5714600080
0!
#5714629017
1!
#5714644105
0!
#5714654613
1!
#5714678242
0!
#5714685167
1!
#5714717274
0!
#5714749741
1!
#5714778128
0!
#5714795312
1!
#5714818949
0!
#5714823094
1!
#5714857341
0!
#5714865070
1!
#5714899361
0!
#5714916498
1!
#5714938706
0!
#5714949226
1!
#5714951979
0!
#5714969310
1!
#5715001437
0!
#5715022841
1!
#5715025101
0!
#5715035853
1!
#5715070613
0!
#5715071508
1!
#5715096273
0!
#5715118885
1!
#5715148917
0!
#5715159371
1!
#5715160601
0!
#5715165284
1!
#5715195961
0!
#5715205559
1!
#5715212492
0!
#5715226675
1!
#5715257576
0!
#5715259064
1!
#5715284336
0!
#5715303394
1!
#5715327846
0!
#5715362894
1!
#5715375234
0!
#5715399382
1!
#5715413836
0!
#5715443057
1!
#5715457825
0!
#5715486584
1!
#5715504581
0!
#5715537706
1!
#5715539585
0!
#5715572953
1!
#5715582843
0!
#5715599612
1!
#5715608098
0!
#5715632901
1!
#5715668099
0!
#5715689343
1!
#5715704583
0!
#5715728705
1!
#5715757313
0!
#5715758258
1!
#5715774667
0!
#5715811399
1!
#5715815287
0!
#5715821655
1!
#5715834510
0!
#5715866501
1!
#5715882124
0!
#5715898815
1!
#5715912178
0!
#5715917349
1!
#5715933892
0!
#5715941253
1!
#5715967620
0!
#5715971027
1!
#5715997839
0!
#5716020114
1!
#5716021440
0!
#5716054777
1!
#5716059356
0!
#5716074452
1!
#5716092716
0!
#5716098524
1!
#5716124693
0!
#5716137595
1!
#5716156280
0!
#5716160697
1!
#5716187675
0!
#5716212178
1!
#5716224312
0!
#6080443207
1!
#6080482334
0!
#6080573932
1!
#6080589080
0!
#6080638618
1!
#6080727034
0!
#6080776006
1!
#6080814733
0!
#6080889575
1!
#6080970175
0!
#6080970361
1!
#6080989801
0!
#6081046253
1!
#6081145502
0!
#6081231100
1!
#6081265445
0!
#6081331774
1!
#6081386148
0!
#6081388344
1!
#6081402842
0!
#6081417262
1!
#6081512988
0!
#6081608165
1!
#6081709069
0!
#6081729886
1!
#6081744655
0!
#6081764492
1!
#6081833787
0!
#6081876126
1!
#6081923086
0!
#6081980353
1!
#6082015240
0!
#6082058805
1!
#6082077960
0!
#6082084958
1!
#6082111223
0!
#6082116730
1!
#6082141219
0!
#6082163424
1!
#6082199888
0!
#6082214294
1!
#6082283453
0!
#6082285824
1!
#6196988108
0!
#6197019928
1!
#6197068548
0!
#6197124428
1!
#6197220719
0!
#6197248353
1!
#6197250346
0!
#6197342745
1!
#6197400817
0!
#6197497763
1!
#6197500206
0!
#6197584234
1!
#6197657381
0!
#6197731074
1!
#6197835914
0!
#6197891930
1!
#6197988638
0!
#6198057919
1!
#6198101529
0!
#6198167269
1!
#6198257973
0!
#6198329206
1!
#6198404571
0!
#6198452940
1!
#6198532837
0!
#6198584373
1!
#6198677589
0!
#6198719703
1!
#6198827962
0!
#6198860336
1!
#6198940609
0!
#6198978525
1!
#6199062758
0!
#6199161856
1!
#6199208265
0!
#6199247236
1!
#6199288086
0!
#6199297980
1!
#6199333097
0!
#6330412736
1!
#6330836126
0!
#6331328661
1!
#6331738122
0!
#6331828597
1!
#6332090939
0!
#6332210201
1!
#6413594968
0!
#6413618830
1!
#6413623105
0!
#6413644895
1!
#6413666625
0!
#6413676931
1!
#6413683210
0!
#6413698695
1!
#6413708951
0!
#6413731632
1!
#6413750926
0!
#6413761147
1!
#6413782904
0!
#6413805718
1!
#6413811144
0!
#6413814440
1!
#6413814775
0!
#6413828013
1!
#6413835606
0!
#6413838548
1!
#6413854514
0!
#6413865941
1!
#6413885472
0!
#6413899692
1!
#6413918111
0!
#6413941776
1!
#6413947641
0!
#6413967547
1!
#6413972440
0!
#6413994496
1!
#6414016680
0!
#6414040824
1!
#6414064853
0!
#6414087463
1!
#6414093587
0!
#6414110257
1!
#6414124190
0!
#6414147443
1!
#6414168331
0!
#6414177318
1!
#6414177686
0!
#6414177945
1!
#6414199825
0!
#6414225241
1!
#6414226573
0!
#6414231229
1!
#6414249742
0!
#6414254189
1!
#6414254278
0!
#6414278305
1!
#6414280738
0!
#6414286579
1!
#6414303333
0!
#6414317122
1!
#6414329540
0!
#6414346103
1!
#6414363432
0!
#6414374053
1!
#6414381619
0!
#6414403267
1!
#6414418328
0!
#6414423260
1!
#6414443230
0!
#6414465187
1!
#6414479385
0!
#6414485956
1!
#6414496414
0!
#6414499754
1!
#6414500161
0!
#6414515959
1!
#6414519742
0!
#6414525978
1!
#6414530293
0!
#6414536767
1!
#6414550672
0!
#6414560292
1!
#6414571995
0!
#6414581226
1!
#6414600900
0!
#6414605556
1!
#6414613661
0!
#6414628297
1!
#6414651051
0!
#6414656448
1!
#6414656715
0!
#6414665512
1!
#6414667510
0!
#6414686061
1!
#6414710064
0!
#6414733680
1!
#6414739124
0!
#6414751003
1!
#6414758170
0!
#6414772458
1!
#6414783780
0!
#6414806049
1!
#6414818630
0!
#6414829772
1!
#6414854168
0!
#6414864495
1!
#6414874657
0!
#6414892279
1!
#6414899283
0!
#6414910150
1!
#6414934800
0!
#6414943914
1!
#6414954229
0!
#6414964978
1!
#6414980856
0!
#6414995102
1!
#6415016309
0!
#6415025414
1!
#6415037894
0!
#6415058276
1!
#6415070508
0!
#6415094687
1!
#6415113685
0!
#6415116973
1!
#6415140379
0!
#6415152271
1!
#6415173066
0!
#6415192206
1!
#6415216104
0!
#6415232634
1!
#6415251032
0!
#6415264063
1!
#6415273865
0!
#6415280692
1!
#6415294824
0!
#6415309516
1!
#6415333360
0!
#6415343088
1!
#6415359510
0!
#6415367773
1!
#6415383814
0!
#6415387215
1!
#6415401387
0!
#6415423011
1!
#6415430323
0!
#6415439520
1!
#6415460901
0!
#6415466574
1!
#6415487649
0!
#6415508386
1!
#6415511674
0!
#6415536181
1!
#6415544121
0!
#6415547138
1!
#6415562274
0!
#6415587351
1!
#6415599720
0!
#6415605509
1!
#6415619745
0!
#6415635701
1!
#6415659782
0!
#6415667558
1!
#6415678048
0!
#6415682111
1!
#6415690098
0!
#6415709048
1!
#6415717248
0!
#6415734949
1!
#6415749632
0!
#6415765411
1!
#6415769851
0!
#6415792816
1!
#6415793141
0!
#6415795305
1!
#6415818259
0!
#6415828065
1!
#6415837701
0!
#6415857438
1!
#6415872192
0!
#6563503025
1!
#6563525352
0!
#6563540042
1!
#6563562332
0!
#6563582360
1!
#6563583407
0!
#6563596704
1!
#6563606955
0!
#6563619808
1!
#6563628451
0!
#6563632061
1!
#6563632259
0!
#6563656471
1!
#6563659259
0!
#6563677919
1!
#6563702234
0!
#6563714892
1!
#6563727027
0!
#6563738419
1!
#6563751712
0!
#6563761712
1!
#6563784167
0!
#6563788629
1!
#6563800023
0!
#6563816275
1!
#6563833461
0!
#6563840470
1!
#6563865008
0!
#6563881762
1!
#6563896209
0!
#6563896622
1!
#6563919744
0!
#6563938182
1!
#6563945731
0!
#6563946978
1!
#6563959940
0!
#6563965320
1!
#6563989556
0!
#6564002545
1!
#6564027182
0!
#6564040757
1!
#6564050996
0!
#6564061583
1!
#6564075056
0!
#6564082399
1!
#6564096934
0!
#6564106477
1!
#6564116185
0!
#6564131891
1!
#6564146146
0!
#6564169483
1!
#6564174085
0!
#6564190104
1!
#6564196007
0!
#6564198522
1!
#6564210793
0!
#6564211639
1!
#6564232898
0!
#6564255484
1!
#6564267093
0!
#6564286930
1!
#6564301022
0!
#6564309226
1!
#6564323938
0!
#6564324663
1!
#6564345707
0!
#6564362600
1!
#6564384037
0!
#6564396550
1!
#6564417266
0!
#6564420181
1!
